STA 237 Final Project
…
covid_north <-
  covid_north %>%
  filter(total_tests_per_thousand >= 10) %>%
  filter(total_vaccinations > 0)

covid_north %>%
  #select()
  group_by(location) %>%
  count(NA) %>%
  arrange(desc(n))

## # A tibble: 79 x 3
## # Groups:   location [79]
##    location      `NA`      n
##    <fct>         <lgl> <int>
##  1 Latvia        NA      321
##  2 Canada        NA      320
##  3 United States NA      320
##  4 Norway        NA      318
##  5 Israel        NA      317
##  6 Switzerland   NA      313
##  7 Italy         NA      307
##  8 Belgium       NA      305
##  9 Austria       NA      304
## 10 Ireland       NA      303
## # ... with 69 more rows
…
